\relax 
\citation{Pradhan04}
\citation{Jurafsky2000}
\citation{Pradhan04}
\citation{Reyes13}
\citation{Chrupala2006}
\citation{Bikel04}
\citation{Collins97}
\@writefile{toc}{\contentsline {chapter}{\numberline {3}Clasificador de argumentos de verbos}{26}}
\@writefile{lof}{\addvspace {10\p@ }}
\@writefile{lot}{\addvspace {10\p@ }}
\@writefile{toc}{\contentsline {subsection}{\numberline {3.0.2}Caracter\IeC {\'\i }sticas de los argumentos de verbo}{26}}
\citation{Chang2011}
\citation{Hsu10apractical}
\@writefile{toc}{\contentsline {section}{\numberline {3.1}Ajuste de par\IeC {\'a}metros}{27}}
\citation{CKY}
\@writefile{toc}{\contentsline {section}{\numberline {3.2}El algoritmo CKY y el modelo 2 de Collins}{28}}
\@writefile{toc}{\contentsline {section}{\numberline {3.3}Modificaci\IeC {\'o}n del analizador sint\IeC {\'a}ctico}{29}}
\citation{Chrupala2006}
\@writefile{lof}{\contentsline {figure}{\numberline {\textbf  {3-1}}{\ignorespaces Entradas y salidas de la fase de entrenamiento\relax }}{31}}
\newlabel{fig:diag_entrenamiento}{{\textbf  {3-1}}{31}}
\@writefile{lof}{\contentsline {figure}{\numberline {\textbf  {3-2}}{\ignorespaces Entradas y salidas de la fase de decodificaci\IeC {\'o}n\relax }}{31}}
\newlabel{fig:diag_decodificacion}{{\textbf  {3-2}}{31}}
\@writefile{lof}{\contentsline {figure}{\numberline {\textbf  {3-3}}{\ignorespaces Diagrama de actividades del m\IeC {\'e}todo \emph  {joinItems} modificado.\relax }}{32}}
\newlabel{fig:diag_decodificacion}{{\textbf  {3-3}}{32}}
\@setckpt{Kap3/Kap3}{
\setcounter{page}{33}
\setcounter{equation}{0}
\setcounter{enumi}{2}
\setcounter{enumii}{0}
\setcounter{enumiii}{0}
\setcounter{enumiv}{0}
\setcounter{footnote}{0}
\setcounter{mpfootnote}{0}
\setcounter{part}{0}
\setcounter{chapter}{3}
\setcounter{section}{3}
\setcounter{subsection}{0}
\setcounter{subsubsection}{0}
\setcounter{paragraph}{0}
\setcounter{subparagraph}{0}
\setcounter{figure}{3}
\setcounter{table}{0}
\setcounter{parentequation}{0}
\setcounter{subfigure}{0}
\setcounter{lofdepth}{1}
\setcounter{subtable}{0}
\setcounter{lotdepth}{1}
\setcounter{LT@tables}{0}
\setcounter{LT@chunks}{0}
\setcounter{ContinuedFloat}{0}
\setcounter{float@type}{4}
\setcounter{r@tfl@t}{0}
}
