\relax 
\citation{Agirre95}
\citation{Aha94}
\citation{Almubaid02}
\@writefile{toc}{\contentsline {title}{Putting\nobreakspace  {}Pieces\nobreakspace  {}Together: Combining\nobreakspace  {}FrameNet,\nobreakspace  {}VerbNet\nobreakspace  {}and\nobreakspace  {}WordNet for\nobreakspace  {}Robust\nobreakspace  {}Semantic\nobreakspace  {}Parsing}{1}}
\@writefile{toc}{\contentsline {author}{ John Smith and Mary Smith}{1}}
\@writefile{toc}{\contentsline {section}{\numberline {1}Introduction}{1}}
\@writefile{toc}{\contentsline {section}{\numberline {2}Knowledge Bases for Semantic Parsing}{2}}
\@writefile{toc}{\contentsline {subsection}{\numberline {2.1}FrameNet}{2}}
\@writefile{toc}{\contentsline {subsection}{\numberline {2.2}VerbNet}{2}}
\@writefile{toc}{\contentsline {section}{\numberline {3}Combining Resources}{2}}
\@writefile{lot}{\contentsline {table}{\numberline {1}{\ignorespaces Sample table.}}{2}}
\newlabel{tab:table1}{{1}{2}}
\@writefile{lof}{\contentsline {figure}{\numberline {1}{\ignorespaces Algorithm for mapping VerbNet verbs to FrameNet frames. LU = Lexical Unit. F = frame.}}{3}}
\newlabel{fig:algorithm1}{{1}{3}}
\@writefile{toc}{\contentsline {subsection}{\numberline {3.1}Evaluation}{3}}
\bibstyle{splncs}
\bibdata{paper}
\bibcite{Agirre95}{1}
\bibcite{Aha94}{2}
\bibcite{Almubaid02}{3}
\@writefile{lof}{\contentsline {figure}{\numberline {2}{\ignorespaces Semantic parse tree for a sample sentence. \relax \fontsize  {9}{11}\selectfont  \abovedisplayskip 8.5\p@ plus3\p@ minus4\p@ \abovedisplayshortskip \z@ plus2\p@ \belowdisplayshortskip 4\p@ plus2\p@ minus2\p@ \def \leftmargin \leftmargini \parsep 0\p@ plus1\p@ minus\p@ \topsep 8\p@ plus2\p@ minus4\p@ \itemsep 0\p@ {\leftmargin \leftmargini \parsep 0\p@ plus1\p@ minus\p@ \topsep 8\p@ plus2\p@ minus4\p@ \itemsep 0\p@ }\belowdisplayskip \abovedisplayskip ({\it  am} = attributive modifier, {\it  rm} = referential modifier, {\it  sm} = restrictive modifier)}}{4}}
\newlabel{fig:examples}{{2}{4}}
\@writefile{toc}{\contentsline {section}{\numberline {4}Conclusions}{4}}
