\relax 
\catcode`"\active
\catcode`<\active
\catcode`>\active
\@nameuse{es@quoting}
\select@language{spanish}
\@writefile{toc}{\select@language{spanish}}
\@writefile{lof}{\select@language{spanish}}
\@writefile{lot}{\select@language{spanish}}
\@writefile{toc}{\contentsline {title}{Control de cambio de versiones del documento del trabajo de investigaci\IeC {\'o}n: Analizador sint\IeC {\'a}ctico probabil\IeC {\'\i }stico con clasificador de argumentos de verbo para el idioma espa\IeC {\~n}ol}{1}}
\@writefile{toc}{\contentsline {author}{John Alexander Vargas\unskip \ \ignorespaces  john.a.vargas@correounivalle.edu.co}{1}}
