\relax 
\citation{llorach1994gramatica}
\citation{Pradhan04,Cortes95}
\citation{Bikel04}
\citation{Collins97}
\citation{Bikel04}
\citation{Anc09}
\@writefile{toc}{\contentsline {title}{Probabilistic Parser with Classification of Verb Arguments for the Spanish Language}{1}}
\@writefile{toc}{\contentsline {author}{ John Alexander Vargas, Raul Gutierrez de Piñeres Ph.d.}{1}}
\citation{Charniak97}
\citation{Bikel04}
\citation{Collins97}
\citation{allen1995}
\citation{Molina}
\citation{Collins97}
\citation{Bikel04}
\citation{Cortes95}
\citation{Jurafsky2000}
\@writefile{toc}{\contentsline {section}{\numberline {1}Introduction}{2}}
\citation{Collins03,Collins97}
\citation{Collins03,Collins97}
\citation{Collins03}
\citation{Collins97}
\@writefile{toc}{\contentsline {section}{\numberline {2}Probabilistic Parser}{4}}
\@writefile{toc}{\contentsline {subsection}{\numberline {2.1}Collins Model}{4}}
\@writefile{toc}{\contentsline {subsubsection}{Model 1}{4}}
\citation{Bikel04}
\citation{Collins03}
\citation{Magerman95}
\citation{Cowan2008}
\citation{Chrupala2006}
\@writefile{lof}{\contentsline {figure}{\numberline {1}{\ignorespaces Example of a tree showing the complement. \cite  {Collins03}}}{5}}
\newlabel{fig:ejemplo_complemento_collins}{{1}{5}}
\@writefile{toc}{\contentsline {subsubsection}{Model 2}{5}}
\@writefile{toc}{\contentsline {subsubsection}{Model 3}{5}}
\citation{Anc09}
\@writefile{toc}{\contentsline {subsection}{\numberline {2.2}Bikel Implementation}{6}}
\@writefile{toc}{\contentsline {subsection}{\numberline {2.3}Ancora Corpus}{6}}
\citation{Jurafsky2000}
\citation{Pradhan04}
\citation{ReyesMGP13}
\citation{Chrupala2006}
\@writefile{toc}{\contentsline {section}{\numberline {3}Classifier of Verb Arguments }{7}}
\@writefile{toc}{\contentsline {section}{\numberline {4}Amendment of the parser}{7}}
\citation{Chrupala2006}
\citation{Chrupala2006}
\citation{Magerman95}
\@writefile{toc}{\contentsline {section}{\numberline {5}Evaluation}{8}}
\@writefile{lot}{\contentsline {table}{\numberline {1}{\ignorespaces Baseline and SVM score results}}{9}}
\newlabel{tbl:comparacion_metricas_bikel}{{1}{9}}
\@writefile{toc}{\contentsline {section}{\numberline {6}Conclutions}{9}}
\bibstyle{splncs}
\bibdata{paper}
\bibcite{llorach1994gramatica}{1}
\bibcite{Pradhan04}{2}
\bibcite{Cortes95}{3}
\bibcite{Bikel04}{4}
\bibcite{Collins97}{5}
\bibcite{Anc09}{6}
\bibcite{Charniak97}{7}
\bibcite{allen1995}{8}
\bibcite{Molina}{9}
\@writefile{toc}{\contentsline {subsection}{\numberline {6.1}Future work}{10}}
\bibcite{Jurafsky2000}{10}
\bibcite{Collins03}{11}
\bibcite{Magerman95}{12}
\bibcite{Cowan2008}{13}
\bibcite{Chrupala2006}{14}
\bibcite{ReyesMGP13}{15}
