\relax 
\catcode`"\active
\catcode`<\active
\catcode`>\active
\@nameuse{es@quoting}
\select@language{spanish}
\@writefile{toc}{\select@language{spanish}}
\@writefile{lof}{\select@language{spanish}}
\@writefile{lot}{\select@language{spanish}}
\@writefile{toc}{\contentsline {title}{Analizador sint\IeC {\'a}ctico probabil\IeC {\'\i }stico con clasificaci\IeC {\'o}n de argumentos de verbo para el idioma espa\IeC {\~n}ol}{1}}
\@writefile{toc}{\contentsline {author}{ Raul Gutierrez de Pi\IeC {\~n}eres Ph.d. and John Alexander Vargas}{1}}
\citation{Chrupala2006}
\citation{Chrupala2006}
\citation{Cowan2005}
\citation{Charniak97}
\citation{Bikel04}
\citation{Collins03}
\citation{allen1995}
\citation{Collins03}
\@writefile{toc}{\contentsline {section}{\numberline {1}Introducci\IeC {\'o}n}{2}}
\@writefile{toc}{\contentsline {section}{\numberline {2}Analizador sint\IeC {\'a}ctico probabil\IeC {\'\i }stico}{3}}
\@writefile{toc}{\contentsline {subsection}{\numberline {2.1}Modelo de Collins}{3}}
\citation{Collins03}
\citation{Collins97}
\@writefile{lof}{\contentsline {figure}{\numberline {1}{\ignorespaces Ejemplo de un \IeC {\'a}rbol mostrando el complemento \cite  {Collins03}}}{4}}
\newlabel{fig:ejemplo_complemento_collins}{{1}{4}}
\@writefile{toc}{\contentsline {subsubsection}{Modelo 2}{4}}
\citation{Bikel04}
\citation{Collins03}
\citation{Magerman95}
\citation{Cowan2008}
\citation{Chrupala2006}
\@writefile{toc}{\contentsline {subsubsection}{Modelo 3}{5}}
\@writefile{toc}{\contentsline {subsection}{\numberline {2.2}Implementaci\IeC {\'o}n de Bikel y Reglas de cabeza}{6}}
\@writefile{toc}{\contentsline {subsection}{\numberline {2.3}Ancora Corpus}{6}}
\@writefile{toc}{\contentsline {section}{\numberline {3}Clasificador de argumentos de verbo}{7}}
\@writefile{toc}{\contentsline {section}{\numberline {4}Modificaci\IeC {\'o}n del analizador sint\IeC {\'a}ctico}{7}}
\citation{Chrupala2006}
\citation{Chrupala2006}
\citation{Magerman95}
\@writefile{toc}{\contentsline {section}{\numberline {5}Evaluaci\IeC {\'o}n}{8}}
\@writefile{lof}{\contentsline {figure}{\numberline {2}{\ignorespaces Procesos del analizador sint\IeC {\'a}ctico probabil\IeC {\'\i }stico}}{9}}
\newlabel{fig:procesos_analizador}{{2}{9}}
\bibstyle{splncs}
\bibdata{paper}
\bibcite{Chrupala2006}{1}
\bibcite{Cowan2005}{2}
\bibcite{Charniak97}{3}
\@writefile{lot}{\contentsline {table}{\numberline {1}{\ignorespaces Evaluaci\IeC {\'o}n de resultados del analizador Baseline y SVM}}{11}}
\newlabel{tbl:comparacion_metricas_bikel}{{1}{11}}
\@writefile{toc}{\contentsline {section}{\numberline {6}Conclusiones y trabajo futuro}{11}}
\@writefile{toc}{\contentsline {subsection}{\numberline {6.1}Recomendaciones}{11}}
\bibcite{Bikel04}{4}
\bibcite{Collins03}{5}
\bibcite{allen1995}{6}
\bibcite{Collins97}{7}
\bibcite{Magerman95}{8}
\bibcite{Cowan2008}{9}
