\relax 
\catcode`"\active
\catcode`<\active
\catcode`>\active
\@nameuse{es@quoting}
\citation{llorach1994gramatica}
\citation{Hsu10apractical,Cortes95}
\citation{Bikel04}
\citation{Collins97}
\citation{CKY}
\select@language{spanish}
\@writefile{toc}{\select@language{spanish}}
\@writefile{lof}{\select@language{spanish}}
\@writefile{lot}{\select@language{spanish}}
\@writefile{toc}{\contentsline {title}{Analizador sint\IeC {\'a}ctico probabil\IeC {\'\i }stico con clasificaci\IeC {\'o}n de argumentos de verbo para el idioma espa\IeC {\~n}ol}{1}}
\@writefile{toc}{\contentsline {author}{ Raul Gutierrez de Pi\IeC {\~n}eres Ph.d. and John Alexander Vargas}{1}}
\citation{Anc09}
\citation{Collins03}
\citation{Bikel04}
\citation{Cortes95, Hsu10apractical}
\citation{Pradhan04, Chrupala2006}
\@writefile{toc}{\contentsline {section}{\numberline {1}Introducci\IeC {\'o}n}{2}}
\citation{Collins03,Collins97}
\citation{Collins03}
\citation{Collins97}
\@writefile{toc}{\contentsline {section}{\numberline {2}Analizador sint\IeC {\'a}ctico probabil\IeC {\'\i }stico}{3}}
\@writefile{toc}{\contentsline {subsection}{\numberline {2.1}Modelo de Collins}{3}}
\@writefile{lof}{\contentsline {figure}{\numberline {1}{\ignorespaces Ejemplo de un \IeC {\'a}rbol mostrando el complemento \cite  {Collins03}}}{4}}
\newlabel{fig:ejemplo_complemento_collins}{{1}{4}}
\@writefile{toc}{\contentsline {subsubsection}{Modelo 2}{4}}
\@writefile{toc}{\contentsline {subsubsection}{Modelo 3}{4}}
\citation{Bikel04}
\citation{Collins03}
\citation{Magerman95}
\citation{Cowan2008}
\citation{Chrupala2006}
\citation{Anc09}
\@writefile{toc}{\contentsline {subsection}{\numberline {2.2}Implementaci\IeC {\'o}n de Bikel y Reglas de cabeza}{5}}
\@writefile{toc}{\contentsline {subsection}{\numberline {2.3}Ancora Corpus}{5}}
\@writefile{toc}{\contentsline {section}{\numberline {3}Clasificador de argumentos de verbo}{6}}
\citation{Chrupala2006}
\@writefile{toc}{\contentsline {section}{\numberline {4}Modificaci\IeC {\'o}n del analizador sint\IeC {\'a}ctico}{7}}
\citation{Chrupala2006}
\citation{Magerman95}
\@writefile{toc}{\contentsline {section}{\numberline {5}Evaluaci\IeC {\'o}n}{8}}
\bibstyle{splncs}
\bibdata{paper}
\bibcite{llorach1994gramatica}{1}
\@writefile{lot}{\contentsline {table}{\numberline {1}{\ignorespaces Evaluaci\IeC {\'o}n de resultados del analizador Baseline y SVM}}{9}}
\newlabel{tbl:comparacion_metricas_bikel}{{1}{9}}
\@writefile{toc}{\contentsline {section}{\numberline {6}Conclusiones y trabajo futuro}{9}}
\bibcite{Hsu10apractical}{2}
\bibcite{Cortes95}{3}
\bibcite{Bikel04}{4}
\bibcite{Collins97}{5}
\bibcite{CKY}{6}
\bibcite{Anc09}{7}
\bibcite{Collins03}{8}
\bibcite{Pradhan04}{9}
\bibcite{Magerman95}{10}
\bibcite{Cowan2008}{11}
\bibcite{Chrupala2006}{12}
