\begin{thebibliography}{10}

\bibitem{llorach1994gramatica}
Llorach, E.:
\newblock Gram{\'a}tica de la lengua espa{\~n}ola.
\newblock Colecci{\'o}n Nebrija y Bello. Espasa Calpe (1994)

\bibitem{Hsu10apractical}
wei Hsu, C., chung Chang, C., jen Lin, C.:
\newblock A practical guide to support vector classification (2010)

\bibitem{Cortes95}
Cortes, C., Vapnik, V.:
\newblock Support-vector networks.
\newblock Mach. Learn. \textbf{20} (1995)  273--297

\bibitem{Bikel04}
Bikel, D.M.:
\newblock On the Parameter Space of Generative Lexicalized Statistical Parsing
  Models.
\newblock PhD thesis, Philadelphia, PA, USA (2004) AAI3152016.

\bibitem{Collins97}
Collins, M.:
\newblock Three generative, lexicalised models for statistical parsing.
\newblock In: Proceedings of the Eighth Conference on European Chapter of the
  Association for Computational Linguistics. EACL '97, Stroudsburg, PA, USA,
  Association for Computational Linguistics (1997)  16--23

\bibitem{CKY}
Oncina, J.:
\newblock (The cocke-younger-kasami algorithm for cyclic strings)

\bibitem{Anc09}
Mariona~Taul\'e, M.A.M., Recasens, M.:
\newblock Ancora: Multilevel annotated corpora for catalan and spanish.
\newblock In Nicoletta Calzolari (Conference~Chair), Khalid~Choukri,
  B.M.J.M.J.O.S.P.D.T., ed.: Proceedings of the Sixth International Conference
  on Language Resources and Evaluation (LREC'08), Marrakech, Morocco, European
  Language Resources Association (ELRA) (2008)
  http://www.lrec-conf.org/proceedings/lrec2008/.

\bibitem{Collins03}
Collins, M.:
\newblock Head-driven statistical models for natural language parsing.
\newblock Comput. Linguist. \textbf{29} (2003)  589--637

\bibitem{Pradhan04}
Pradhan, S., Ward, W., Hacioglu, K., Martin, J.H.:
\newblock Shallow semantic parsing using support vector machines.
\newblock (2004)

\bibitem{Magerman95}
Magerman, D.M.:
\newblock Statistical decision-tree models for parsing.
\newblock In: In Proceedings of the 33rd Annual Meeting of the Association for
  Computational Linguistics. (1995)  276--283

\bibitem{Cowan2008}
Cowan, B.A.:
\newblock A Tree-to-Tree Model for Statistical Machine Translation.
\newblock PhD thesis, Massachusetts, MA, USA (2008)

\bibitem{Chrupala2006}
Chrupala, G., van Genabith, J.:
\newblock Using machine-learning to assign function labels to parser output for
  spanish.
\newblock In: Proceedings of the COLING/ACL on Main Conference Poster Sessions.
  COLING-ACL '06, Stroudsburg, PA, USA, Association for Computational
  Linguistics (2006)  136--143

\end{thebibliography}
