\relax 
\citation{Charniak97}
\citation{Bikel04}
\citation{Collins03}
\citation{allen1995}
\citation{Molina}
\citation{Collins03}
\citation{Bikel04}
\citation{Cortes95}
\citation{Hsu10apractical}
\citation{Pradhan04}
\citation{Chrupala2006}
\@writefile{toc}{\contentsline {chapter}{\numberline {1}Introducci\IeC {\'o}n}{2}}
\@writefile{lof}{\addvspace {10\p@ }}
\@writefile{lot}{\addvspace {10\p@ }}
\citation{Chang2011}
\citation{CKY}
\citation{allen}
\citation{Molina}
\citation{Chk57}
\citation{Collins97}
\citation{Bikel04}
\citation{Cowan2008}
\citation{Sam04}
\@writefile{toc}{\contentsline {section}{\numberline {1.1}Problema}{3}}
\@writefile{toc}{\contentsline {section}{\numberline {1.2}Objetivos}{4}}
\@writefile{toc}{\contentsline {subsection}{\numberline {1.2.1}Objetivo General}{4}}
\@writefile{toc}{\contentsline {subsection}{\numberline {1.2.2}Objetivos Espec\IeC {\'\i }ficos}{4}}
\@setckpt{Kap1/Kap1}{
\setcounter{page}{5}
\setcounter{equation}{0}
\setcounter{enumi}{6}
\setcounter{enumii}{0}
\setcounter{enumiii}{0}
\setcounter{enumiv}{0}
\setcounter{footnote}{0}
\setcounter{mpfootnote}{0}
\setcounter{part}{0}
\setcounter{chapter}{1}
\setcounter{section}{2}
\setcounter{subsection}{2}
\setcounter{subsubsection}{0}
\setcounter{paragraph}{0}
\setcounter{subparagraph}{0}
\setcounter{figure}{0}
\setcounter{table}{0}
\setcounter{parentequation}{0}
\setcounter{subfigure}{0}
\setcounter{lofdepth}{1}
\setcounter{subtable}{0}
\setcounter{lotdepth}{1}
\setcounter{LT@tables}{0}
\setcounter{LT@chunks}{0}
\setcounter{ContinuedFloat}{0}
\setcounter{float@type}{4}
\setcounter{r@tfl@t}{0}
}
