\relax 
\@writefile{toc}{\contentsline {chapter}{\numberline {4}Integraci\'on del clasificador de argumentos en el analizador sint\'actico}{25}}
\@writefile{lof}{\addvspace {10\p@ }}
\@writefile{lot}{\addvspace {10\p@ }}
\@writefile{toc}{\contentsline {section}{\numberline {4.1}El algoritmo CKY y el modelo 2 de Collins}{25}}
\citation{CKY}
\@writefile{toc}{\contentsline {section}{\numberline {4.2}Modificaci\'on del analizador sint\'actico}{26}}
\citation{Chrupala2006}
\@writefile{lof}{\contentsline {figure}{\numberline {\textbf  {4-1}}{\ignorespaces Procesos del analizador sint'actico probabil'istico\relax }}{28}}
\newlabel{fig:procesos_analizador}{{\textbf  {4-1}}{28}}
\@setckpt{Kap4/Kap4}{
\setcounter{page}{29}
\setcounter{equation}{0}
\setcounter{enumi}{2}
\setcounter{enumii}{0}
\setcounter{enumiii}{0}
\setcounter{enumiv}{0}
\setcounter{footnote}{0}
\setcounter{mpfootnote}{0}
\setcounter{part}{0}
\setcounter{chapter}{4}
\setcounter{section}{2}
\setcounter{subsection}{0}
\setcounter{subsubsection}{0}
\setcounter{paragraph}{0}
\setcounter{subparagraph}{0}
\setcounter{figure}{1}
\setcounter{table}{0}
\setcounter{parentequation}{0}
\setcounter{subfigure}{0}
\setcounter{lofdepth}{1}
\setcounter{subtable}{0}
\setcounter{lotdepth}{1}
\setcounter{LT@tables}{0}
\setcounter{LT@chunks}{0}
\setcounter{ContinuedFloat}{0}
\setcounter{float@type}{4}
\setcounter{r@tfl@t}{0}
}
