\relax 
\catcode`"\active
\catcode`<\active
\catcode`>\active
\@nameuse{es@quoting}
\@input{HojaTitulo/HojaTituloMSc.aux}
\select@language{spanish}
\@writefile{toc}{\select@language{spanish}}
\@writefile{lof}{\select@language{spanish}}
\@writefile{lot}{\select@language{spanish}}
\@input{Kap1/Kap1.aux}
\@input{Kap2/Kap2.aux}
\@input{Kap3/Kap3.aux}
\@input{Kap5/Kap5.aux}
\@input{Kap6/Kap6.aux}
\bibstyle{plaindin_esp}
\bibdata{BibliMSc}
\bibcite{penntrebank}{1}
\bibcite{allen1995}{2}
\bibcite{allen}{3}
\bibcite{Bikel04}{4}
\bibcite{Bradley97theuse}{5}
\bibcite{Car04}{6}
\bibcite{Chang2011}{7}
\bibcite{Charniak97}{8}
\bibcite{Chk57}{9}
\bibcite{Chrupala2006}{10}
\bibcite{Collins97}{11}
\bibcite{Collins03}{12}
\@writefile{toc}{\contentsline {chapter}{\hbox to\@tempdima {\hfil }Bibliograf\IeC {\'\i }a}{41}}
\bibcite{Cortes95}{13}
\bibcite{Cowan2008}{14}
\bibcite{Gorn67}{15}
\bibcite{Hsu10apractical}{16}
\bibcite{Joshi97}{17}
\bibcite{Jurafsky2000}{18}
\bibcite{EAGLES}{19}
\bibcite{llorach1994gramatica}{20}
\bibcite{PLN3314}{21}
\bibcite{Magerman95}{22}
\bibcite{Molina}{23}
\bibcite{Anc09}{24}
\bibcite{marti2007ama}{25}
\bibcite{muller2000adjuntos}{26}
\bibcite{CKY}{27}
\bibcite{padro12}{28}
\bibcite{Pradhan2005}{29}
\bibcite{Pradhan04}{30}
\bibcite{Reyes13}{31}
\bibcite{ReyesMGP13}{32}
\bibcite{Sam04}{33}
\bibcite{parseval}{34}
\bibcite{Tesniere1959}{35}
\bibcite{Vapnik1999}{36}
\bibcite{PLN3237}{37}
\bibcite{Mig10}{38}
