\relax 
\citation{parseval}
\@writefile{toc}{\contentsline {chapter}{\numberline {4}Evaluaci\IeC {\'o}n de los analizadores sint\IeC {\'a}cticos}{33}}
\@writefile{lof}{\addvspace {10\p@ }}
\@writefile{lot}{\addvspace {10\p@ }}
\citation{Chrupala2006}
\citation{Magerman95}
\@writefile{toc}{\contentsline {section}{\numberline {4.1}Evaluaci\IeC {\'o}n del modelo l\IeC {\'\i }nea base}{34}}
\@writefile{toc}{\contentsline {subsection}{\numberline {4.1.1}An\IeC {\'a}lisis de resultados}{34}}
\citation{Bradley97theuse}
\citation{Chang2011}
\@writefile{lot}{\contentsline {table}{\numberline {\textbf  {4-1}}{\ignorespaces Precisi\IeC {\'o}n del analizador sint\IeC {\'a}ctico l\IeC {\'\i }nea base de Bikel.\relax }}{35}}
\newlabel{tbl:metricas_linea_base}{{\textbf  {4-1}}{35}}
\@writefile{toc}{\contentsline {section}{\numberline {4.2}Ajustes de ejemplos para el clasificador de argumentos de verbo}{35}}
\@writefile{lof}{\contentsline {figure}{\numberline {\textbf  {4-1}}{\ignorespaces Gr\IeC {\'a}fica generada por el gnuplot de los archivos de los ejemplos del SVM.\relax }}{36}}
\newlabel{fig:grafica_roc_svm}{{\textbf  {4-1}}{36}}
\@writefile{toc}{\contentsline {section}{\numberline {4.3}Evaluaci\IeC {\'o}n del analizador sint\IeC {\'a}ctico con clasificaci\IeC {\'o}n de argumentos de verbo}{36}}
\@writefile{lot}{\contentsline {table}{\numberline {\textbf  {4-2}}{\ignorespaces Precisi\IeC {\'o}n relativa de los ejemplos de la m\IeC {\'a}quina de soporte vectorial usando el \IeC {\'a}rea bajo la curva.\relax }}{37}}
\newlabel{tbl:tabla_metrica_roc}{{\textbf  {4-2}}{37}}
\@writefile{lot}{\contentsline {table}{\numberline {\textbf  {4-3}}{\ignorespaces Precisi\IeC {\'o}n del analizador l\IeC {\'\i }nea base y analizador con SVM\relax }}{38}}
\newlabel{tbl:resultados_bikel_svm}{{\textbf  {4-3}}{38}}
\@writefile{lot}{\contentsline {table}{\numberline {\textbf  {4-4}}{\ignorespaces Evaluaci\IeC {\'o}n de resultados del analizador Baseline y SVM\relax }}{38}}
\newlabel{tbl:comparacion_metricas_bikel}{{\textbf  {4-4}}{38}}
\@writefile{toc}{\contentsline {subsection}{\numberline {4.3.1}An\IeC {\'a}lisis de resultados}{38}}
\@setckpt{Kap5/Kap5}{
\setcounter{page}{39}
\setcounter{equation}{0}
\setcounter{enumi}{2}
\setcounter{enumii}{0}
\setcounter{enumiii}{0}
\setcounter{enumiv}{0}
\setcounter{footnote}{1}
\setcounter{mpfootnote}{0}
\setcounter{part}{0}
\setcounter{chapter}{4}
\setcounter{section}{3}
\setcounter{subsection}{1}
\setcounter{subsubsection}{0}
\setcounter{paragraph}{0}
\setcounter{subparagraph}{0}
\setcounter{figure}{1}
\setcounter{table}{4}
\setcounter{parentequation}{0}
\setcounter{subfigure}{0}
\setcounter{lofdepth}{1}
\setcounter{subtable}{0}
\setcounter{lotdepth}{1}
\setcounter{LT@tables}{0}
\setcounter{LT@chunks}{0}
\setcounter{ContinuedFloat}{0}
\setcounter{float@type}{4}
\setcounter{r@tfl@t}{0}
}
