\relax 
\citation{Mig10}
\citation{Mig10}
\citation{Mig10}
\citation{Mig10}
\citation{Mig10}
\citation{penntrebank}
\citation{Anc09}
\citation{marti2007ama}
\@writefile{toc}{\contentsline {chapter}{\numberline {2}Marco Te\IeC {\'o}rico}{5}}
\@writefile{lof}{\addvspace {10\p@ }}
\@writefile{lot}{\addvspace {10\p@ }}
\@writefile{toc}{\contentsline {section}{\numberline {2.1}An\IeC {\'a}lisis Sint\IeC {\'a}ctico}{5}}
\@writefile{lof}{\contentsline {figure}{\numberline {\textbf  {2-1}}{\ignorespaces Ejemplo de un \IeC {\'a}rbol de estructura de frase \cite  {Mig10}\relax }}{5}}
\providecommand*\caption@xref[2]{\@setref\relax\@undefined{#1}}
\newlabel{fig:estructura_ejemplo}{{\textbf  {2-1}}{5}}
\citation{Collins03}
\citation{Chk57}
\citation{Mig10}
\citation{Joshi97}
\citation{PLN3314}
\citation{PLN3237}
\@writefile{lof}{\contentsline {figure}{\numberline {\textbf  {2-2}}{\ignorespaces Ejemplo de una gram\IeC {\'a}tica libre de contexto \cite  {Mig10}\relax }}{6}}
\newlabel{fig:gramatica_ejemplo}{{\textbf  {2-2}}{6}}
\@writefile{toc}{\contentsline {subsection}{\numberline {2.1.1}Gram\IeC {\'a}ticas Libres de Contexto (CFG: Context Free Grammar)}{6}}
\@writefile{toc}{\contentsline {subsection}{\numberline {2.1.2}Gram\IeC {\'a}ticas de Adjunci\IeC {\'o}n \IeC {\'a}rboles (TAG)}{6}}
\citation{PLN3237}
\citation{Mig10}
\citation{PLN3237}
\citation{Mig10}
\citation{Joshi97}
\citation{PLN3314}
\@writefile{lof}{\contentsline {figure}{\numberline {\textbf  {2-3}}{\ignorespaces Operaci\IeC {\'o}n de adjunci\IeC {\'o}n \cite  {PLN3237, Mig10}\relax }}{8}}
\newlabel{fig:operacion_adjuncion}{{\textbf  {2-3}}{8}}
\citation{Gorn67}
\citation{Collins03}
\@writefile{toc}{\contentsline {subsection}{\numberline {2.1.3}\IeC {\'A}rboles de derivaci\IeC {\'o}n}{9}}
\@writefile{toc}{\contentsline {section}{\numberline {2.2}Modelos probabil\IeC {\'\i }sticos}{9}}
\citation{Collins97}
\@writefile{toc}{\contentsline {subsubsection}{\nonumberline Estimaci\IeC {\'o}n de m\IeC {\'a}xima similitud}{10}}
\@writefile{toc}{\contentsline {subsubsection}{\nonumberline Gram\IeC {\'a}ticas Probabil\IeC {\'\i }sticas Libres de Contexto (PCFG)}{10}}
\citation{Collins03}
\citation{Collins97}
\@writefile{toc}{\contentsline {subsubsection}{\nonumberline Definici\IeC {\'o}n Formal}{11}}
\@writefile{toc}{\contentsline {subsubsection}{\nonumberline PCFG Lexicalizadas}{11}}
\@writefile{toc}{\contentsline {subsubsection}{\nonumberline Modelos basados en historias}{11}}
\citation{Collins97}
\@writefile{toc}{\contentsline {subsection}{\numberline {2.2.1}Modelo de Collins}{12}}
\@writefile{toc}{\contentsline {subsubsection}{\nonumberline Modelo B\IeC {\'a}sico}{12}}
\@writefile{toc}{\contentsline {subsubsection}{\nonumberline Modelo 1}{12}}
\citation{Collins97}
\@writefile{toc}{\contentsline {subsubsection}{\nonumberline Modelo 2}{13}}
\citation{Collins03}
\citation{Collins03}
\citation{Collins03}
\citation{Collins03}
\@writefile{lof}{\contentsline {figure}{\numberline {\textbf  {2-5}}{\ignorespaces Ejemplo de un \IeC {\'a}rbol mostrando la brecha (gap) \cite  {Collins03}\relax }}{14}}
\newlabel{fig:ejemplo_gap_collins}{{\textbf  {2-5}}{14}}
\@writefile{lof}{\contentsline {figure}{\numberline {\textbf  {2-4}}{\ignorespaces Ejemplo de un \IeC {\'a}rbol mostrando el complemento \cite  {Collins03}\relax }}{14}}
\newlabel{fig:ejemplo_complemento_collins}{{\textbf  {2-4}}{14}}
\@writefile{toc}{\contentsline {subsubsection}{\nonumberline Modelo 3}{14}}
\citation{Bikel04}
\@writefile{toc}{\contentsline {subsection}{\numberline {2.2.2}Implementaci\IeC {\'o}n de Bikel}{15}}
\citation{Collins03}
\citation{Magerman95}
\citation{Cowan2008}
\citation{Chrupala2006}
\citation{Cowan2008}
\citation{Cowan2008}
\@writefile{toc}{\contentsline {subsubsection}{\nonumberline Reglas para encontrar el n\IeC {\'u}cleo sint\IeC {\'a}ctico}{16}}
\citation{Anc09}
\citation{EAGLES}
\@writefile{lof}{\contentsline {figure}{\numberline {\textbf  {2-6}}{\ignorespaces Reglas de cabeza para el espa\IeC {\~n}ol \cite  {Cowan2008}\relax }}{17}}
\newlabel{fig:reglas_nucleo_cowan}{{\textbf  {2-6}}{17}}
\@writefile{toc}{\contentsline {section}{\numberline {2.3}Tecnolog\IeC {\'\i }as de NLP usadas}{17}}
\@writefile{toc}{\contentsline {subsection}{\numberline {2.3.1}Ancora Corpus}{17}}
\@writefile{lof}{\contentsline {figure}{\numberline {\textbf  {2-7}}{\ignorespaces Reglas para encontrar el n\IeC {\'u}cleo sint\IeC {\'a}ctico usadas en la implementaci\IeC {\'o}n de Bikel para el espa\IeC {\~n}ol.\relax }}{18}}
\newlabel{fig:reglas_nucleo_bikel_spanish}{{\textbf  {2-7}}{18}}
\citation{Anc09}
\citation{Anc09}
\citation{Mig10}
\citation{Mig10}
\citation{Car04}
\@writefile{lot}{\contentsline {table}{\numberline {\textbf  {2-1}}{\ignorespaces Ejemplos de etiquetas usadas en el corpus de Ancora \cite  {Anc09}\relax }}{19}}
\citation{padro12}
\citation{padro12}
\citation{Vapnik1999}
\@writefile{lof}{\contentsline {figure}{\numberline {\textbf  {2-8}}{\ignorespaces \IeC {\'A}rbol sint\IeC {\'a}ctico completo anotado con constituyentes \cite  {Mig10}\relax }}{20}}
\newlabel{fig:estructura_ejemplo_ancora}{{\textbf  {2-8}}{20}}
\@writefile{toc}{\contentsline {subsection}{\numberline {2.3.2}Freeling}{20}}
\citation{Cortes95}
\citation{Cortes95}
\@writefile{lof}{\contentsline {figure}{\numberline {\textbf  {2-9}}{\ignorespaces Hiperplano mostrando los vectores de soporte \cite  {Cortes95}\relax }}{21}}
\newlabel{fig:vectores_soporte}{{\textbf  {2-9}}{21}}
\@writefile{toc}{\contentsline {section}{\numberline {2.4}M\IeC {\'a}quinas de Vectores de Soporte}{21}}
\@writefile{toc}{\contentsline {subsubsection}{\nonumberline Margen amplio}{21}}
\@writefile{toc}{\contentsline {subsubsection}{\nonumberline El Kernel}{22}}
\@writefile{toc}{\contentsline {section}{\numberline {2.5}Clasificaci\IeC {\'o}n de argumentos de verbo}{22}}
\citation{Pradhan04}
\citation{Tesniere1959}
\citation{Pradhan04}
\citation{Pradhan2005}
\citation{Reyes13}
\citation{ReyesMGP13}
\citation{Chrupala2006}
\citation{Pradhan04}
\citation{Pradhan2005}
\citation{Jurafsky2000}
\citation{Reyes13}
\citation{Chrupala2006}
\@writefile{toc}{\contentsline {subsection}{\numberline {2.5.1}Clasificaci\IeC {\'o}n de Roles sem\IeC {\'a}nticos}{24}}
\@setckpt{Kap2/Kap2}{
\setcounter{page}{26}
\setcounter{equation}{0}
\setcounter{enumi}{11}
\setcounter{enumii}{0}
\setcounter{enumiii}{0}
\setcounter{enumiv}{0}
\setcounter{footnote}{0}
\setcounter{mpfootnote}{0}
\setcounter{part}{0}
\setcounter{chapter}{2}
\setcounter{section}{5}
\setcounter{subsection}{1}
\setcounter{subsubsection}{0}
\setcounter{paragraph}{0}
\setcounter{subparagraph}{0}
\setcounter{figure}{9}
\setcounter{table}{1}
\setcounter{parentequation}{0}
\setcounter{subfigure}{0}
\setcounter{lofdepth}{1}
\setcounter{subtable}{0}
\setcounter{lotdepth}{1}
\setcounter{LT@tables}{0}
\setcounter{LT@chunks}{0}
\setcounter{ContinuedFloat}{0}
\setcounter{float@type}{4}
\setcounter{r@tfl@t}{0}
}
